hipoteca,emprestimos,idade,estado_civil,renda,risco
y,3,34,outros,28060.7,alto
n,2,37,outros,28009.34,alto
n,2,29,outros,27614.6,alto
y,2,33,outros,27287.18,alto
y,2,39,outros,26954.06,alto
n,2,28,outros,26271.86,alto
n,3,28,outros,40445,alto
n,2,25,outros,23888.3,alto
n,2,41,outros,35249.25,alto
n,2,26,outros,23518.88,alto
n,2,30,outros,23575.22,alto
n,2,23,outros,23447.54,alto
n,2,47,outros,23058.02,alto
y,2,23,outros,22039.4,alto
y,2,24,outros,21114.5,alto
n,3,28,outros,24996.75,alto
n,3,31,outros,16351.22,alto
n,2,47,outros,16095.2,alto
y,1,22,solteiro,42156.98,alto
y,1,38,solteiro,40053.5,alto
y,1,23,solteiro,39780.92,alto
y,1,27,solteiro,39528.14,alto
y,2,23,solteiro,27980.84,alto
y,2,27,solteiro,26857.34,alto
y,2,35,solteiro,41436.25,alto
y,1,23,solteiro,25453.46,alto
y,1,26,solteiro,24777.08,alto
y,1,17,solteiro,23948.48,alto
y,2,27,solteiro,23972.6,alto
y,2,29,solteiro,23709.38,alto
y,2,43,solteiro,33036,alto
y,2,24,solteiro,32626,alto
y,2,30,solteiro,32411.5,alto
y,1,33,solteiro,22121.12,alto
y,1,30,solteiro,21024.62,alto
y,2,34,solteiro,19904.78,alto
y,1,23,solteiro,24314.5,alto
y,1,26,solteiro,19040,alto
y,2,19,solteiro,19192,alto
y,2,36,solteiro,16856.54,alto
y,1,35,solteiro,16364.5,alto
y,1,30,solteiro,15989.42,alto
y,0,42,casado,33971.9,alto
y,0,35,casado,27311.3,alto
n,1,23,casado,35641.75,alto
y,1,28,casado,34407,alto
n,1,48,casado,28143.5,alto
n,1,23,casado,19332.74,alto
n,1,19,casado,20954.5,alto
y,2,50,solteiro,23910,alto
n,1,33,casado,20188.1,alto
y,0,40,solteiro,56329.4,alto
y,0,25,casado,35483.12,alto
y,3,47,outros,29225.6,alto
n,3,18,outros,28831.82,alto
n,2,38,outros,28961.48,alto
n,3,25,outros,28380.38,alto
y,2,33,outros,27134.72,alto
n,2,31,outros,26646.62,alto
n,2,34,outros,26092.52,alto
y,2,47,outros,26094.2,alto
y,2,40,outros,25691.12,alto
y,3,36,outros,25585.04,alto
y,2,32,outros,25052.36,alto
y,3,28,outros,24787.34,alto
y,2,38,outros,24819.02,alto
y,2,26,outros,24297.38,alto
y,2,43,outros,24164.54,alto
y,3,42,outros,24114.02,alto
n,2,46,outros,23868.56,alto
y,2,25,outros,23579.84,alto
y,2,32,outros,23559.26,alto
y,3,34,outros,23680.52,alto
y,2,33,outros,23615.24,alto
y,3,26,outros,22544.66,alto
n,3,40,outros,20465.84,alto
y,3,41,outros,20307.5,alto
n,3,31,outros,20352.26,alto
y,2,51,outros,19886.72,alto
y,2,46,outros,18133.25,alto
y,3,36,outros,16402.4,alto
y,3,38,outros,15301.25,alto
y,0,35,solteiro,53882.66,alto
y,0,42,solteiro,52492.46,alto
y,0,44,solteiro,45447.98,alto
y,0,33,solteiro,44444.72,alto
y,1,25,solteiro,43281.44,alto
y,1,34,solteiro,43321.7,alto
y,0,42,solteiro,40621.16,alto
y,1,35,solteiro,27800.66,alto
y,1,26,solteiro,24053.48,alto
y,1,27,solteiro,36316,alto
y,1,39,solteiro,23785.64,alto
y,2,44,solteiro,35426.25,alto
y,2,33,solteiro,35558,alto
y,2,34,solteiro,35581,alto
y,1,21,solteiro,34947.5,alto
y,1,36,solteiro,33782.75,alto
y,1,37,solteiro,33691.5,alto
y,1,41,solteiro,22935.38,alto
y,2,29,solteiro,33470.25,alto
y,1,39,casado,32943.5,alto
y,1,41,solteiro,32713.5,alto
y,2,59,solteiro,22484.12,alto
y,1,28,casado,32228.5,alto
y,1,32,solteiro,22319.24,alto
y,1,25,solteiro,32222.25,alto
y,2,46,solteiro,22276.64,alto
y,2,26,solteiro,22198.7,alto
y,1,53,solteiro,31815.75,alto
y,1,44,casado,31035,alto
y,2,53,solteiro,31044.75,alto
y,1,45,solteiro,30669.25,alto
y,2,52,solteiro,30348,alto
y,1,32,solteiro,30028.25,alto
n,1,49,solteiro,29352.5,alto
y,1,59,solteiro,29154.5,alto
y,1,55,solteiro,29218.75,alto
y,1,38,solteiro,29009.25,alto
n,2,52,solteiro,28675.5,alto
y,2,42,solteiro,20533.64,alto
y,2,54,solteiro,27191,alto
n,2,62,casado,27030.5,alto
y,1,39,solteiro,39994.9,baixo
y,2,48,solteiro,39826.6,baixo
y,2,36,solteiro,44332.75,baixo
y,2,36,solteiro,44404,baixo
y,2,51,solteiro,43584.5,baixo
y,1,62,solteiro,39138.94,baixo
y,1,50,solteiro,41855.25,baixo
y,1,59,solteiro,37939.78,baixo
n,1,25,solteiro,40134,baixo
n,1,48,solteiro,39527.75,baixo
y,2,49,solteiro,37362.64,baixo
n,2,60,solteiro,38269.5,baixo
n,1,57,solteiro,38278.75,baixo
n,2,53,solteiro,38008.75,baixo
y,2,41,solteiro,37166,baixo
y,2,50,solteiro,36233.08,baixo
n,2,28,solteiro,35326.25,baixo
n,2,54,solteiro,34716.5,baixo
n,1,35,solteiro,34277,baixo
n,1,49,solteiro,34191.75,baixo
y,0,54,casado,53242.06,baixo
y,0,45,casado,50380.9,baixo
n,1,39,casado,43789.9,baixo
y,1,35,casado,43505.26,baixo
n,1,30,casado,55751,baixo
y,1,51,casado,55436,baixo
n,1,55,casado,55186.75,baixo
n,1,53,casado,43345.78,baixo
y,1,49,casado,54843,baixo
y,1,55,casado,54522.25,baixo
y,1,34,casado,54180.75,baixo
n,1,31,casado,42949.6,baixo
n,1,56,casado,53411.5,baixo
y,1,47,casado,53665.25,baixo
n,1,47,casado,53321.25,baixo
y,1,63,casado,53482.75,baixo
y,1,54,casado,53011.5,baixo
y,1,38,casado,52561.75,baixo
n,1,50,casado,52726.5,baixo
n,1,66,casado,42120.34,baixo
y,1,56,casado,51684.25,baixo
n,1,57,casado,51127.25,baixo
n,1,31,casado,50799.5,baixo
n,1,44,casado,50664.25,baixo
n,1,54,casado,50203.25,baixo
n,1,38,casado,49812.75,baixo
y,1,53,casado,49813.25,baixo
n,1,53,casado,49664.25,baixo
y,1,27,casado,49553.75,baixo
n,1,53,casado,40909.24,baixo
y,1,51,casado,40692.4,baixo
y,1,42,casado,47468.5,baixo
n,1,48,casado,47334.75,baixo
n,1,37,casado,46957.75,baixo
n,1,33,casado,45627.75,baixo
y,1,32,casado,39807.22,baixo
n,1,40,casado,44957.25,baixo
n,1,41,casado,44619.75,baixo
y,1,46,casado,43896.5,baixo
y,1,43,casado,43521.25,baixo
n,1,34,casado,39759.75,baixo
y,1,32,casado,38096.5,baixo
n,1,31,casado,37887.5,baixo
y,1,35,casado,37371.75,baixo
y,1,41,casado,37436.5,baixo
y,1,46,casado,36786,baixo
n,1,38,casado,36357,baixo
n,1,40,casado,35614,baixo
n,1,52,casado,35380.75,baixo
n,0,43,solteiro,61250.68,baixo
y,1,45,casado,56693.25,baixo
n,1,54,casado,42060,baixo
n,3,54,outros,48110.32,baixo
n,3,40,outros,62949.25,baixo
y,2,44,outros,45072.4,baixo
y,3,46,outros,44623.54,baixo
y,3,51,outros,41864.02,baixo
n,3,56,outros,40223.74,baixo
y,3,55,outros,39417.88,baixo
n,2,51,outros,36691.6,baixo
y,0,40,outros,78398.62,baixo
y,1,50,solteiro,72214.9,baixo
y,0,56,solteiro,70133.62,baixo
y,1,43,solteiro,69142,baixo
y,1,63,solteiro,66774.22,baixo
y,1,38,solteiro,66399.46,baixo
y,0,49,solteiro,65255.68,baixo
y,0,54,solteiro,65087.8,baixo
y,1,51,solteiro,64692.76,baixo
y,1,38,solteiro,64051.12,baixo
y,1,43,solteiro,64029.88,baixo
y,1,43,solteiro,63627.88,baixo
y,0,43,solteiro,63508.96,baixo
y,1,60,solteiro,63205,baixo
y,0,50,solteiro,63007.9,baixo
y,0,42,solteiro,62868.7,baixo
y,0,51,solteiro,61746.76,baixo
y,0,49,solteiro,61738.12,baixo
y,0,54,solteiro,61173.7,baixo
y,0,37,solteiro,61119.7,baixo
y,0,46,solteiro,60802.66,baixo
y,1,34,solteiro,60372.1,baixo
y,1,47,solteiro,59908.72,baixo
y,1,55,solteiro,59796.52,baixo
y,0,49,solteiro,57767.74,baixo
y,1,32,solteiro,55186.72,baixo
y,1,48,solteiro,52943.08,baixo
y,0,45,outros,48266.8,baixo
n,1,51,casado,47493,baixo
y,1,48,solteiro,46631.25,baixo
y,0,52,casado,52033.54,baixo
y,0,37,casado,51852.4,baixo
y,0,49,casado,50873.56,baixo
y,0,44,casado,50793.46,baixo
y,0,50,casado,48931.66,baixo
y,0,33,casado,48780.16,baixo
y,0,45,casado,47067.82,baixo
y,0,60,casado,46869.88,baixo
y,0,51,casado,46810.12,baixo
y,0,55,casado,45709.78,baixo
y,0,51,casado,44896.42,baixo
y,0,54,casado,44301.52,baixo
y,1,60,casado,54096,baixo